{
	"info": {
		"_postman_id": "cfd4d91b-ac01-4130-b9f1-3f0c641712fe",
		"name": "playvox",
		"schema": "https://schema.getpostman.com/json/collection/v2.1.0/collection.json"
	},
	"item": [
		{
			"name": "user",
			"item": [
				{
					"name": "list",
					"request": {
						"method": "GET",
						"header": [],
						"url": {
							"raw": "localhost:3333/api/users",
							"host": [
								"localhost"
							],
							"port": "3333",
							"path": [
								"api",
								"users"
							]
						}
					},
					"response": []
				},
				{
					"name": "create",
					"request": {
						"method": "POST",
						"header": [
							{
								"key": "Content-Type",
								"name": "Content-Type",
								"value": "application/x-www-form-urlencoded",
								"type": "text"
							}
						],
						"body": {
							"mode": "urlencoded",
							"urlencoded": [
								{
									"key": "name",
									"value": "Julián",
									"type": "text"
								},
								{
									"key": "subject",
									"value": "Very important service red",
									"type": "text"
								},
								{
									"key": "satisfaction_id",
									"value": "10",
									"type": "text"
								},
								{
									"key": "prioritie_id",
									"value": "1",
									"type": "text"
								},
								{
									"key": "statu_id",
									"value": "1",
									"type": "text"
								}
							]
						},
						"url": {
							"raw": "localhost:3333/api/user",
							"host": [
								"localhost"
							],
							"port": "3333",
							"path": [
								"api",
								"user"
							]
						}
					},
					"response": []
				}
			]
		},
		{
			"name": "combos",
			"item": [
				{
					"name": "list satisfactions",
					"request": {
						"method": "GET",
						"header": [],
						"url": {
							"raw": "localhost:3333/api/satisfactions",
							"host": [
								"localhost"
							],
							"port": "3333",
							"path": [
								"api",
								"satisfactions"
							]
						}
					},
					"response": []
				},
				{
					"name": "list priorities",
					"request": {
						"method": "GET",
						"header": [],
						"url": {
							"raw": "localhost:3333/api/priorities",
							"host": [
								"localhost"
							],
							"port": "3333",
							"path": [
								"api",
								"priorities"
							]
						}
					},
					"response": []
				},
				{
					"name": "list \tstatus",
					"request": {
						"method": "GET",
						"header": [],
						"url": {
							"raw": "localhost:3333/api/priorities",
							"host": [
								"localhost"
							],
							"port": "3333",
							"path": [
								"api",
								"priorities"
							]
						}
					},
					"response": []
				}
			]
		}
	]
}